\relax 
\catcode `"\active 
\select@language{polish}
\@writefile{toc}{\select@language{polish}}
\@writefile{lof}{\select@language{polish}}
\@writefile{lot}{\select@language{polish}}
\@writefile{lof}{\contentsline {figure}{\numberline {1}{\ignorespaces Zrzut z dzia\IeC {\l }ania programu.}}{1}}
\@writefile{toc}{\contentsline {paragraph}{}{2}}
\@writefile{toc}{\contentsline {paragraph}{}{2}}
\@writefile{lot}{\contentsline {table}{\numberline {1}{\ignorespaces Wynik wykonania programu dla r\IeC {\'o}\IeC {\.z}nej liczby przydzielonych w\IeC {\k a}tk\IeC {\'o}w obliczeniowych.}}{2}}
\newlabel{tabela_wyniki}{{1}{2}}
\@writefile{toc}{\contentsline {paragraph}{}{2}}
\@writefile{toc}{\contentsline {paragraph}{}{3}}
